<svg width="233" height="31" viewBox="0 0 233 31" fill="none" xmlns="http://www.w3.org/2000/svg">
<path d="M21.5568 8.875H16.5795C16.4886 8.23106 16.303 7.65909 16.0227 7.15909C15.7424 6.65151 15.3826 6.2197 14.9432 5.86364C14.5038 5.50757 13.9962 5.23485 13.4205 5.04545C12.8523 4.85606 12.2348 4.76136 11.5682 4.76136C10.3636 4.76136 9.31439 5.06061 8.42045 5.65909C7.52652 6.25 6.83333 7.11364 6.34091 8.25C5.84849 9.37879 5.60227 10.75 5.60227 12.3636C5.60227 14.0227 5.84849 15.4167 6.34091 16.5455C6.84091 17.6742 7.53788 18.5265 8.43182 19.1023C9.32576 19.678 10.3598 19.9659 11.5341 19.9659C12.1932 19.9659 12.803 19.8788 13.3636 19.7045C13.9318 19.5303 14.4356 19.2765 14.875 18.9432C15.3144 18.6023 15.678 18.1894 15.9659 17.7045C16.2614 17.2197 16.4659 16.6667 16.5795 16.0455L21.5568 16.0682C21.428 17.1364 21.1061 18.1667 20.5909 19.1591C20.0833 20.1439 19.3977 21.0265 18.5341 21.8068C17.678 22.5795 16.6553 23.1932 15.4659 23.6477C14.2841 24.0947 12.947 24.3182 11.4545 24.3182C9.37879 24.3182 7.52273 23.8485 5.88636 22.9091C4.25758 21.9697 2.9697 20.6098 2.02273 18.8295C1.08333 17.0492 0.613636 14.8939 0.613636 12.3636C0.613636 9.82576 1.09091 7.66667 2.04545 5.88636C3 4.10606 4.29545 2.75 5.93182 1.81818C7.56818 0.878787 9.40909 0.40909 11.4545 0.40909C12.803 0.40909 14.053 0.598484 15.2045 0.977272C16.3636 1.35606 17.3902 1.90909 18.2841 2.63636C19.178 3.35606 19.9053 4.23864 20.4659 5.28409C21.0341 6.32954 21.3977 7.52651 21.5568 8.875ZM32.8807 24.3409C31.1155 24.3409 29.589 23.9659 28.3011 23.2159C27.0208 22.4583 26.0322 21.4053 25.3352 20.0568C24.6383 18.7008 24.2898 17.1288 24.2898 15.3409C24.2898 13.5379 24.6383 11.9621 25.3352 10.6136C26.0322 9.25758 27.0208 8.20454 28.3011 7.45454C29.589 6.69697 31.1155 6.31818 32.8807 6.31818C34.6458 6.31818 36.1686 6.69697 37.4489 7.45454C38.7367 8.20454 39.7292 9.25758 40.4261 10.6136C41.1231 11.9621 41.4716 13.5379 41.4716 15.3409C41.4716 17.1288 41.1231 18.7008 40.4261 20.0568C39.7292 21.4053 38.7367 22.4583 37.4489 23.2159C36.1686 23.9659 34.6458 24.3409 32.8807 24.3409ZM32.9034 20.5909C33.7064 20.5909 34.3769 20.3636 34.9148 19.9091C35.4527 19.447 35.858 18.8182 36.1307 18.0227C36.411 17.2273 36.5511 16.322 36.5511 15.3068C36.5511 14.2917 36.411 13.3864 36.1307 12.5909C35.858 11.7955 35.4527 11.1667 34.9148 10.7045C34.3769 10.2424 33.7064 10.0114 32.9034 10.0114C32.0928 10.0114 31.411 10.2424 30.858 10.7045C30.3125 11.1667 29.8996 11.7955 29.6193 12.5909C29.3466 13.3864 29.2102 14.2917 29.2102 15.3068C29.2102 16.322 29.3466 17.2273 29.6193 18.0227C29.8996 18.8182 30.3125 19.447 30.858 19.9091C31.411 20.3636 32.0928 20.5909 32.9034 20.5909ZM44.6193 24V6.54545H49.233V9.625H49.4375C49.8011 8.60227 50.4072 7.79545 51.2557 7.20454C52.1042 6.61364 53.1193 6.31818 54.3011 6.31818C55.4981 6.31818 56.517 6.61742 57.358 7.21591C58.1989 7.80682 58.7595 8.60985 59.0398 9.625H59.2216C59.5777 8.625 60.2216 7.82576 61.1534 7.22727C62.0928 6.62121 63.2027 6.31818 64.483 6.31818C66.1117 6.31818 67.4337 6.83712 68.4489 7.875C69.4716 8.9053 69.983 10.3674 69.983 12.2614V24H65.1534V13.2159C65.1534 12.2462 64.8958 11.5189 64.3807 11.0341C63.8655 10.5492 63.2216 10.3068 62.4489 10.3068C61.5701 10.3068 60.8845 10.5871 60.392 11.1477C59.8996 11.7008 59.6534 12.4318 59.6534 13.3409V24H54.9602V13.1136C54.9602 12.2576 54.714 11.5758 54.2216 11.0682C53.7367 10.5606 53.0966 10.3068 52.3011 10.3068C51.7633 10.3068 51.2784 10.4432 50.8466 10.7159C50.4223 10.9811 50.0852 11.3561 49.8352 11.8409C49.5852 12.3182 49.4602 12.8788 49.4602 13.5227V24H44.6193ZM73.8068 30.5455V6.54545H78.5795V9.47727H78.7955C79.0076 9.00758 79.3144 8.5303 79.7159 8.04545C80.125 7.55303 80.6553 7.14394 81.3068 6.81818C81.9659 6.48485 82.7841 6.31818 83.7614 6.31818C85.0341 6.31818 86.2083 6.65152 87.2841 7.31818C88.3598 7.97727 89.2197 8.97348 89.8636 10.3068C90.5076 11.6326 90.8295 13.2955 90.8295 15.2955C90.8295 17.2424 90.5152 18.8864 89.8864 20.2273C89.2652 21.5606 88.4167 22.572 87.3409 23.2614C86.2727 23.9432 85.0758 24.2841 83.75 24.2841C82.8106 24.2841 82.0114 24.1288 81.3523 23.8182C80.7008 23.5076 80.1667 23.1174 79.75 22.6477C79.3333 22.1705 79.0152 21.6894 78.7955 21.2045H78.6477V30.5455H73.8068ZM78.5455 15.2727C78.5455 16.3106 78.6894 17.2159 78.9773 17.9886C79.2652 18.7614 79.6818 19.3636 80.2273 19.7955C80.7727 20.2197 81.4356 20.4318 82.2159 20.4318C83.0038 20.4318 83.6705 20.2159 84.2159 19.7841C84.7614 19.3447 85.1742 18.7386 85.4545 17.9659C85.7424 17.1856 85.8864 16.2879 85.8864 15.2727C85.8864 14.2652 85.7462 13.3788 85.4659 12.6136C85.1856 11.8485 84.7727 11.25 84.2273 10.8182C83.6818 10.3864 83.0114 10.1705 82.2159 10.1705C81.428 10.1705 80.7614 10.3788 80.2159 10.7955C79.678 11.2121 79.2652 11.803 78.9773 12.5682C78.6894 13.3333 78.5455 14.2348 78.5455 15.2727ZM99.0341 24.3295C97.9205 24.3295 96.928 24.1364 96.0568 23.75C95.1856 23.3561 94.4962 22.7765 93.9886 22.0114C93.4886 21.2386 93.2386 20.2765 93.2386 19.125C93.2386 18.1553 93.4167 17.3409 93.7727 16.6818C94.1288 16.0227 94.6136 15.4924 95.2273 15.0909C95.8409 14.6894 96.5379 14.3864 97.3182 14.1818C98.1061 13.9773 98.9318 13.8333 99.7955 13.75C100.811 13.6439 101.629 13.5455 102.25 13.4545C102.871 13.3561 103.322 13.2121 103.602 13.0227C103.883 12.8333 104.023 12.553 104.023 12.1818V12.1136C104.023 11.3939 103.795 10.8371 103.341 10.4432C102.894 10.0492 102.258 9.85227 101.432 9.85227C100.561 9.85227 99.8674 10.0455 99.3523 10.4318C98.8371 10.8106 98.4962 11.2879 98.3295 11.8636L93.8523 11.5C94.0795 10.4394 94.5265 9.52273 95.1932 8.75C95.8598 7.9697 96.7197 7.37121 97.7727 6.95454C98.8333 6.5303 100.061 6.31818 101.455 6.31818C102.424 6.31818 103.352 6.43182 104.239 6.65909C105.133 6.88636 105.924 7.23864 106.614 7.71591C107.311 8.19318 107.86 8.80682 108.261 9.55682C108.663 10.2992 108.864 11.1894 108.864 12.2273V24H104.273V21.5795H104.136C103.856 22.125 103.481 22.6061 103.011 23.0227C102.542 23.4318 101.977 23.7538 101.318 23.9886C100.659 24.2159 99.8977 24.3295 99.0341 24.3295ZM100.42 20.9886C101.133 20.9886 101.761 20.8485 102.307 20.5682C102.852 20.2803 103.28 19.8939 103.591 19.4091C103.902 18.9242 104.057 18.375 104.057 17.7614V15.9091C103.905 16.0076 103.697 16.0985 103.432 16.1818C103.174 16.2576 102.883 16.3295 102.557 16.3977C102.231 16.4583 101.905 16.5152 101.58 16.5682C101.254 16.6136 100.958 16.6553 100.693 16.6932C100.125 16.7765 99.6288 16.9091 99.2045 17.0909C98.7803 17.2727 98.4508 17.5189 98.2159 17.8295C97.9811 18.1326 97.8636 18.5114 97.8636 18.9659C97.8636 19.625 98.1023 20.1288 98.5795 20.4773C99.0644 20.8182 99.678 20.9886 100.42 20.9886ZM117.46 13.9091V24H112.619V6.54545H117.233V9.625H117.438C117.824 8.60985 118.472 7.80682 119.381 7.21591C120.29 6.61742 121.392 6.31818 122.688 6.31818C123.9 6.31818 124.956 6.58333 125.858 7.11364C126.759 7.64394 127.46 8.40151 127.96 9.38636C128.46 10.3636 128.71 11.5303 128.71 12.8864V24H123.869V13.75C123.877 12.6818 123.604 11.8485 123.051 11.25C122.498 10.6439 121.737 10.3409 120.767 10.3409C120.116 10.3409 119.54 10.4811 119.04 10.7614C118.547 11.0417 118.161 11.4508 117.881 11.9886C117.608 12.5189 117.468 13.1591 117.46 13.9091ZM134.889 30.5455C134.276 30.5455 133.7 30.4962 133.162 30.3977C132.632 30.3068 132.192 30.1894 131.844 30.0455L132.935 26.4318C133.503 26.6061 134.014 26.7008 134.469 26.7159C134.931 26.7311 135.329 26.625 135.662 26.3977C136.003 26.1705 136.279 25.7841 136.491 25.2386L136.776 24.5L130.514 6.54545H135.605L139.219 19.3636H139.401L143.048 6.54545H148.173L141.389 25.8864C141.063 26.8258 140.62 27.6439 140.06 28.3409C139.507 29.0455 138.806 29.5871 137.957 29.9659C137.109 30.3523 136.086 30.5455 134.889 30.5455ZM158.148 24V0.727272H163.068V19.9432H173.045V24H158.148ZM184.099 24.3409C182.334 24.3409 180.808 23.9659 179.52 23.2159C178.24 22.4583 177.251 21.4053 176.554 20.0568C175.857 18.7008 175.509 17.1288 175.509 15.3409C175.509 13.5379 175.857 11.9621 176.554 10.6136C177.251 9.25758 178.24 8.20454 179.52 7.45454C180.808 6.69697 182.334 6.31818 184.099 6.31818C185.865 6.31818 187.387 6.69697 188.668 7.45454C189.955 8.20454 190.948 9.25758 191.645 10.6136C192.342 11.9621 192.69 13.5379 192.69 15.3409C192.69 17.1288 192.342 18.7008 191.645 20.0568C190.948 21.4053 189.955 22.4583 188.668 23.2159C187.387 23.9659 185.865 24.3409 184.099 24.3409ZM184.122 20.5909C184.925 20.5909 185.596 20.3636 186.134 19.9091C186.671 19.447 187.077 18.8182 187.349 18.0227C187.63 17.2273 187.77 16.322 187.77 15.3068C187.77 14.2917 187.63 13.3864 187.349 12.5909C187.077 11.7955 186.671 11.1667 186.134 10.7045C185.596 10.2424 184.925 10.0114 184.122 10.0114C183.312 10.0114 182.63 10.2424 182.077 10.7045C181.531 11.1667 181.118 11.7955 180.838 12.5909C180.565 13.3864 180.429 14.2917 180.429 15.3068C180.429 16.322 180.565 17.2273 180.838 18.0227C181.118 18.8182 181.531 19.447 182.077 19.9091C182.63 20.3636 183.312 20.5909 184.122 20.5909ZM203.702 30.9091C202.134 30.9091 200.789 30.6932 199.668 30.2614C198.554 29.8371 197.668 29.2576 197.009 28.5227C196.349 27.7879 195.921 26.9621 195.724 26.0455L200.202 25.4432C200.338 25.7917 200.554 26.1174 200.849 26.4205C201.145 26.7235 201.535 26.9659 202.02 27.1477C202.512 27.3371 203.111 27.4318 203.815 27.4318C204.868 27.4318 205.736 27.1742 206.418 26.6591C207.107 26.1515 207.452 25.2992 207.452 24.1023V20.9091H207.247C207.035 21.3939 206.717 21.8523 206.293 22.2841C205.868 22.7159 205.323 23.0682 204.656 23.3409C203.99 23.6136 203.194 23.75 202.27 23.75C200.959 23.75 199.766 23.447 198.69 22.8409C197.622 22.2273 196.77 21.2917 196.134 20.0341C195.505 18.7689 195.19 17.1705 195.19 15.2386C195.19 13.2614 195.512 11.6098 196.156 10.2841C196.8 8.95833 197.656 7.96591 198.724 7.30682C199.8 6.64773 200.978 6.31818 202.259 6.31818C203.236 6.31818 204.054 6.48485 204.713 6.81818C205.372 7.14394 205.902 7.55303 206.304 8.04545C206.713 8.5303 207.027 9.00758 207.247 9.47727H207.429V6.54545H212.236V24.1705C212.236 25.6553 211.872 26.8977 211.145 27.8977C210.418 28.8977 209.41 29.6477 208.122 30.1477C206.842 30.6553 205.368 30.9091 203.702 30.9091ZM203.804 20.1136C204.584 20.1136 205.243 19.9205 205.781 19.5341C206.327 19.1402 206.743 18.5795 207.031 17.8523C207.327 17.1174 207.474 16.2386 207.474 15.2159C207.474 14.1932 207.33 13.3068 207.043 12.5568C206.755 11.7992 206.338 11.2121 205.793 10.7955C205.247 10.3788 204.584 10.1705 203.804 10.1705C203.009 10.1705 202.338 10.3864 201.793 10.8182C201.247 11.2424 200.834 11.8333 200.554 12.5909C200.274 13.3485 200.134 14.2235 200.134 15.2159C200.134 16.2235 200.274 17.0947 200.554 17.8295C200.842 18.5568 201.255 19.1212 201.793 19.5227C202.338 19.9167 203.009 20.1136 203.804 20.1136ZM223.974 24.3409C222.209 24.3409 220.683 23.9659 219.395 23.2159C218.115 22.4583 217.126 21.4053 216.429 20.0568C215.732 18.7008 215.384 17.1288 215.384 15.3409C215.384 13.5379 215.732 11.9621 216.429 10.6136C217.126 9.25758 218.115 8.20454 219.395 7.45454C220.683 6.69697 222.209 6.31818 223.974 6.31818C225.74 6.31818 227.262 6.69697 228.543 7.45454C229.83 8.20454 230.823 9.25758 231.52 10.6136C232.217 11.9621 232.565 13.5379 232.565 15.3409C232.565 17.1288 232.217 18.7008 231.52 20.0568C230.823 21.4053 229.83 22.4583 228.543 23.2159C227.262 23.9659 225.74 24.3409 223.974 24.3409ZM223.997 20.5909C224.8 20.5909 225.471 20.3636 226.009 19.9091C226.546 19.447 226.952 18.8182 227.224 18.0227C227.505 17.2273 227.645 16.322 227.645 15.3068C227.645 14.2917 227.505 13.3864 227.224 12.5909C226.952 11.7955 226.546 11.1667 226.009 10.7045C225.471 10.2424 224.8 10.0114 223.997 10.0114C223.187 10.0114 222.505 10.2424 221.952 10.7045C221.406 11.1667 220.993 11.7955 220.713 12.5909C220.44 13.3864 220.304 14.2917 220.304 15.3068C220.304 16.322 220.44 17.2273 220.713 18.0227C220.993 18.8182 221.406 19.447 221.952 19.9091C222.505 20.3636 223.187 20.5909 223.997 20.5909Z" fill="#B0B0B0"/>
</svg>
