<svg width="104" height="104" viewBox="0 0 104 104" fill="none" xmlns="http://www.w3.org/2000/svg">
<circle cx="52" cy="52" r="51.5" fill="white" stroke="#E4E4E4"/>
<path d="M38.0118 68.5817C35.5558 68.5817 33.4479 67.9602 31.6879 66.7173C29.9379 65.4645 28.5906 63.6598 27.646 61.3033C26.7114 58.9368 26.2441 56.0881 26.2441 52.7571C26.254 49.4261 26.7263 46.5923 27.661 44.2557C28.6056 41.9091 29.9529 40.1193 31.7029 38.8864C33.4628 37.6534 35.5658 37.0369 38.0118 37.0369C40.4578 37.0369 42.5608 37.6534 44.3208 38.8864C46.0807 40.1193 47.428 41.9091 48.3627 44.2557C49.3073 46.6023 49.7796 49.4361 49.7796 52.7571C49.7796 56.098 49.3073 58.9517 48.3627 61.3182C47.428 63.6747 46.0807 65.4744 44.3208 66.7173C42.5708 67.9602 40.4678 68.5817 38.0118 68.5817ZM38.0118 63.9134C39.9209 63.9134 41.4273 62.9737 42.531 61.0945C43.6446 59.2053 44.2014 56.4261 44.2014 52.7571C44.2014 50.331 43.9479 48.2926 43.4408 46.642C42.9337 44.9915 42.2178 43.7486 41.2931 42.9134C40.3683 42.0682 39.2746 41.6456 38.0118 41.6456C36.1127 41.6456 34.6112 42.5902 33.5075 44.4794C32.4039 46.3587 31.847 49.1179 31.8371 52.7571C31.8271 55.1932 32.0708 57.2415 32.5679 58.902C33.075 60.5625 33.7909 61.8153 34.7156 62.6605C35.6404 63.4957 36.7391 63.9134 38.0118 63.9134ZM54.1831 62.3324V57.9325L67.1441 37.4545H70.8131V43.7188H68.5759L59.8508 57.5447V57.7834H77.9424V62.3324H54.1831ZM68.7549 68V60.9901L68.8145 59.0213V37.4545H74.0347V68H68.7549Z" fill="#E4B657"/>
</svg>
