<svg width="40" height="40" viewBox="0 0 40 40" fill="none" xmlns="http://www.w3.org/2000/svg">
<circle cx="20" cy="20" r="19.5" fill="white" stroke="#E4B657"/>
<path fill-rule="evenodd" clip-rule="evenodd" d="M18.0717 17.7268H20.8573V19.1143C21.2585 18.3163 22.2875 17.5993 23.8333 17.5993C26.7965 17.5993 27.5 19.1878 27.5 22.1023V27.5H24.5V22.766C24.5 21.1062 24.0988 20.1702 23.0773 20.1702C21.6605 20.1702 21.0717 21.179 21.0717 22.7653V27.5H18.0717V17.7268ZM12.9275 27.3725H15.9275V17.5993H12.9275V27.3725ZM16.3573 14.4125C16.3574 14.664 16.3075 14.9129 16.2105 15.1449C16.1136 15.377 15.9715 15.5874 15.7925 15.764C15.4298 16.1245 14.9389 16.3262 14.4275 16.325C13.917 16.3247 13.4272 16.1234 13.064 15.7648C12.8857 15.5875 12.744 15.3769 12.6473 15.1448C12.5505 14.9128 12.5004 14.6639 12.5 14.4125C12.5 13.9048 12.7025 13.4188 13.0648 13.0603C13.4277 12.7011 13.9177 12.4998 14.4283 12.5C14.9397 12.5 15.4302 12.7018 15.7925 13.0603C16.154 13.4188 16.3573 13.9048 16.3573 14.4125Z" fill="#1C1710"/>
</svg>
